textmining_CIA_rmarkdown
…
CIA_clean <- CIA %>% 
  mutate(text = 
           str_replace_all(text, 
                           pattern = 
                            "\\d", "")) %>% 
  unnest_tokens(word, text) %>%
  anti_join(stop_words) %>%
  count(doc_id, word, sort = TRUE)

## Joining, by = "word"

CIA_clean

## # A tibble: 16,022 x 3
##    doc_id                            word            n
##    <chr>                             <chr>       <int>
##  1 yyyy-mm-dd_na_na_pasternak.pdf    soviet         27
##  2 1958-11-24_na_cia_pasternak.pdf   release        25
##  3 1958-12-15_cia_na_feltrinelli.pdf approved       23
##  4 1958-12-15_cia_na_feltrinelli.pdf release        22
##  5 1958-06-20_sr2_sr_na.pdf          book           21
##  6 1958-11-25_na_cia_mouton.pdf      book           20
##  7 1959-09-25_cia_cia_sr.pdf         approved       20
##  8 1958-07-14_sr_sr_sr.pdf           approved       19
##  9 1958-07-14_sr_sr_sr.pdf           release        19
## 10 1958-11-25_na_cia_mouton.pdf      feltrinelli    19
## #  with 16,012 more rows
…
I then want to use the tf-idf function on the dataset.

First I need to combine my CIA_ftw with the total number of words that I calculated earlier. I do this by using the left_join function. I call this tibble CIA_tw (tw = total words)

I can now use the function from the tidytext package called bind_tf_idf. This makes all the necessary calculations, and prints a tibble with tf, idf and tf_idf.

CIA_tw <- left_join(CIA_ftw, total_words)

## Joining, by = "from"

CIA_tw %>%
  bind_tf_idf(word, from, n) %>% 
  arrange(desc(tf_idf))

## # A tibble: 12,627 x 7
##    from  word            n total      tf   idf  tf_idf
##    <chr> <chr>       <int> <int>   <dbl> <dbl>   <dbl>
##  1 cia   yes            18 14042 0.00128 1.39  0.00178
##  2 sr2   appointment     4  3653 0.00109 1.39  0.00152
##  3 sr2   bonus           4  3653 0.00109 1.39  0.00152
##  4 sr2   figure          4  3653 0.00109 1.39  0.00152
##  5 na    poker          16 14693 0.00109 1.39  0.00151
##  6 sr2   type           18  3653 0.00493 0.288 0.00142
##  7 sr2   setting        17  3653 0.00465 0.288 0.00134
##  8 sr2   proposed        7  3653 0.00192 0.693 0.00133
##  9 cia   copyright      26 14042 0.00185 0.693 0.00128
## 10 sr2   lay             6  3653 0.00164 0.693 0.00114
## #  with 12,617 more rows
…
## `summarise()` ungrouping output (override with `.groups` argument)

CIA_feltrinelli_tw <- CIA_feltrinelli %>% 
   unnest_tokens(word, text) %>% 
  count(month, word) %>% 
  left_join(total_words_feltrinelli, "month")

CIA_feltrinelli_tw %>%
  bind_tf_idf(word, month, n) %>% 
  arrange(desc(tf_idf))

## # A tibble: 1,561 x 7
##    month word            n total      tf   idf  tf_idf
##    <dbl> <chr>       <int> <int>   <dbl> <dbl>   <dbl>
##  1     1 british         2   157 0.0127  1.39  0.0177 
##  2     1 interested      2   157 0.0127  1.39  0.0177 
##  3     1 my              2   157 0.0127  1.39  0.0177 
##  4     1 translation     3   157 0.0191  0.693 0.0132 
##  5    12 letter         12  1454 0.00825 1.39  0.0114 
##  6    11 berne           8  1159 0.00690 1.39  0.00957
##  7    11 feltrinelli    16  1159 0.0138  0.693 0.00957
##  8     1 advised         2   157 0.0127  0.693 0.00883
##  9     1 along           1   157 0.00637 1.39  0.00883
## 10     1 amateur         1   157 0.00637 1.39  0.00883
## #  with 1,551 more rows
…
I use the sentimental lexicon called NRC, bing and afinn to do my analysis.

NRC categorizes words in a binary fasion into categories such as negative, positive and fear

Bing categorizes the words into positive and negative sentiment in a binary fasion

afinn assigns the words with a score from -5 to 5, with -5 being most negative and 5 being most positive

 CIA_clean %>% 
  inner_join(get_sentiments("nrc")) 

## Joining, by = "word"

## # A tibble: 3,340 x 4
##    doc_id                             word           n sentiment   
##    <chr>                              <chr>      <int> <chr>       
##  1 1958-11-04_na_cia_sr.pdf           copy          15 negative    
##  2 1959-04-01_sr_na_pasternak.pdf     edition       13 anticipation
##  3 1958-07-18_cia_na_pasternak.pdf    author        12 positive    
##  4 1958-07-18_cia_na_pasternak.pdf    author        12 trust       
##  5 1958-11-12_na_poor_feltrinelli.pdf convention    12 positive    
##  6 1958-12-15_cia_na_feltrinelli.pdf  letter        12 anticipation
##  7 1958-11-25_na_cia_mouton.pdf       edition       11 anticipation
##  8 yyyy-mm-dd_na_na_pasternak.pdf     communism      9 anger       
##  9 yyyy-mm-dd_na_na_pasternak.pdf     communism      9 fear        
## 10 yyyy-mm-dd_na_na_pasternak.pdf     communism      9 negative    
## #  with 3,330 more rows

 CIA_clean %>%
  inner_join(get_sentiments("bing")) 

## Joining, by = "word"

## # A tibble: 599 x 4
##    doc_id                           word           n sentiment
##    <chr>                            <chr>      <int> <chr>    
##  1 1958-07-18_cia_na_pasternak.pdf  protection     6 positive 
##  2 1959-01-04_na_na_feltrinelli.pdf wild           5 negative 
##  3 1959-09-25_cia_cia_sr.pdf        approval       5 positive 
##  4 1958-01-24_cia_cia_sr.pdf        approval       4 positive 
##  5 1958-06-20_sr2_sr_na.pdf         reputable      4 positive 
##  6 1958-11-04_na_cia_sr.pdf         destroy        4 negative 
##  7 1958-11-24_na_cia_pasternak.pdf  free           4 positive 
##  8 1958-11-25_na_cia_mouton.pdf     fair           4 positive 
##  9 1959-01-04_na_na_feltrinelli.pdf issue          4 negative 
## 10 1959-01-04_na_na_feltrinelli.pdf winning        4 positive 
## #  with 589 more rows

 CIA_clean %>% 
   inner_join(get_sentiments("afinn")) 

## Joining, by = "word"

## # A tibble: 661 x 4
##    doc_id                            word         n value
##    <chr>                             <chr>    <int> <dbl>
##  1 1958-12-15_cia_na_feltrinelli.pdf approved    23     2
##  2 1959-09-25_cia_cia_sr.pdf         approved    20     2
##  3 1958-07-14_sr_sr_sr.pdf           approved    19     2
##  4 1958-11-24_na_cia_pasternak.pdf   approved    17     2
##  5 1958-12-14_cia_sr_sr.pdf          approved    16     2
##  6 1958-07-08_na_na_pasternak.pdf    approved    15     2
##  7 1958-11-25_na_cia_mouton.pdf      approved    14     2
##  8 1958-06-20_sr_na_sr.pdf           approved    11     2
##  9 1958-11-04_na_cia_sr.pdf          approved    10     2
## 10 1958-01-24_cia_cia_sr.pdf         approved     9     2
## #  with 651 more rows
…
